_id;tags;
5f57a1f26b022ea08035608e;['nisi', 'ut', 'non', 'non', 'magna', 'incididunt', 'dolor'];
5f57a1f2c62bde325d698279;['sit', 'nostrud', 'cillum', 'cupidatat', 'laboris', 'enim', 'irure'];
5f57a1f2cba8bf2cdf77270a;['eiusmod', 'id', 'ullamco', 'mollit', 'cillum', 'enim', 'aliqua'];
5f57a1f2ea6db0a38699a1ac;['eu', 'pariatur', 'mollit', 'velit', 'sit', 'dolore', 'anim'];
5f57a1f205662c5d03dee100;['Lorem', 'aliqua', 'est', 'ad', 'aute', 'tempor', 'adipisicing'];
5f57a1f291eb14fa4f3e4244;['eu', 'labore', 'dolor', 'laboris', 'sit', 'incididunt', 'anim'];
